ECET 229/Quartus/Lab_6/Simple/simulation/qsim/Simple.msim.vcd
$comment
	File created using the following command:
		vcd file Simple.msim.vcd -direction
$end
$date
	Sat Sep 21 22:30:59 2013
$end
$version
	ModelSim Version 10.1d
$end
$timescale
	1ps
$end
$scope module Simple_vlg_vec_tst $end
$var reg 1 ! A $end
$var reg 1 " B $end
$var reg 1 # zero $end
$var wire 1 $ aout $end
$var wire 1 % bout $end
$var wire 1 & dir $end
$var wire 1 ' LEDG0 $end
$var wire 1 ( LEDG1 $end
$var wire 1 ) LEDG2 $end
$var wire 1 * LEDG3 $end
$var wire 1 + LEDG4 $end
$var wire 1 , LEDG5 $end
$var wire 1 - LEDG6 $end
$var wire 1 . LEDG7 $end
$var wire 1 / sampler $end
$scope module i1 $end
$var wire 1 0 gnd $end
$var wire 1 1 vcc $end
$var wire 1 2 unknown $end
$var tri1 1 3 devclrn $end
$var tri1 1 4 devpor $end
$var tri1 1 5 devoe $end
$var wire 1 6 inst4|sub|74~0_combout $end
$var wire 1 7 A~combout $end
$var wire 1 8 inst1|sub|16~0_combout $end
$var wire 1 9 zero~combout $end
$var wire 1 : inst1|sub|16~regout $end
$var wire 1 ; inst~regout $end
$var wire 1 < inst1|sub|17~0_combout $end
$var wire 1 = inst1|sub|17~regout $end
$var wire 1 > inst1|sub|18~0_combout $end
$var wire 1 ? inst1|sub|18~regout $end
$var wire 1 @ inst1|sub|89~0_combout $end
$var wire 1 A inst1|sub|19~0_combout $end
$var wire 1 B inst1|sub|19~regout $end
$var wire 1 C B~combout $end
$var wire 1 D inst4|sub|16~0_combout $end
$var wire 1 E inst4|sub|16~regout $end
$var wire 1 F inst4|sub|17~0_combout $end
$var wire 1 G inst4|sub|17~1_combout $end
$var wire 1 H inst4|sub|17~regout $end
$var wire 1 I inst4|sub|18~0_combout $end
$var wire 1 J inst4|sub|18~regout $end
$var wire 1 K inst4|sub|19~0_combout $end
$var wire 1 L inst4|sub|19~1_combout $end
$var wire 1 M inst4|sub|19~regout $end
$upscope $end
$upscope $end
$enddefinitions $end
#0
$dumpvars
0!
0"
1#
1$
1%
0&
0'
0(
0)
0*
0+
0,
0-
0.
x/
00
11
x2
13
14
15
06
07
18
19
0:
0;
0<
0=
0>
0?
0@
0A
0B
0C
0D
0E
1F
0G
0H
0I
0J
0K
0L
0M
$end
#250000
1"
1C
0/
0%
#500000
1!
17
1/
0$
#750000
0"
0C
0/
1%
#1000000
0!
07
1/
1$
1:
1<
08
1'
#1250000
1"
1C
0/
0%
#1500000
1!
17
1/
0$
#1750000
0"
0C
0/
1%
#2000000
0!
07
1/
1$
0:
1=
18
0'
1(
#2250000
1"
1C
0/
0%
#2500000
1!
17
1/
0$
#2750000
0"
0C
0/
1%
#3000000
0!
07
1/
1$
1:
1>
0<
08
1'
#3250000
1"
1C
0/
0%
#3500000
1!
17
1/
0$
#3750000
0"
0C
0/
1%
#4000000
0!
07
1/
1$
0:
0=
1?
18
0'
0(
1)
#4250000
1"
1C
0/
0%
#4500000
1!
17
1/
0$
#4750000
0"
0C
0/
1%
#5000000
0#
0!
09
07
1/
1$
0?
0>
0)
#6000000
1#
19
0/
#7250000
1"
1C
1/
0%
#7500000
1!
17
0/
0$
#7750000
0"
0C
1/
1%
#8000000
0!
07
0/
1$
1:
1<
08
1'
#8250000
1"
1C
1/
0%
#8500000
1!
17
0/
0$
#8750000
0"
0C
1/
1%
#9000000
0!
07
0/
1$
0:
1=
18
0'
1(
#9250000
1"
1C
1/
0%
#9500000
1!
17
0/
0$
#9750000
0"
0C
1/
1%
#10000000
0!
07
0/
1$
1:
1>
0<
08
1'
#10250000
1"
1C
1/
0%
#10500000
1!
17
0/
0$
#10750000
0"
0C
1/
1%
#11000000
0!
07
0/
1$
0:
0=
1?
18
0'
0(
1)
#11250000
1"
1C
1/
0%
#11500000
1!
17
0/
0$
#11750000
0"
0C
1/
1%
#12000000
0!
07
0/
1$
1:
1<
08
1'
#12250000
1"
1C
1/
0%
#12500000
1!
17
0/
0$
#12750000
0"
0C
1/
1%
#13000000
0!
07
0/
1$
0:
1=
18
0'
1(
#13250000
1"
1C
1/
0%
#13500000
1!
17
0/
0$
#13750000
0"
0C
1/
1%
#14000000
0!
07
0/
1$
1:
1@
0>
0<
08
1'
1A
#14250000
1"
1C
1/
0%
#14500000
1!
17
0/
0$
#14750000
0"
0C
1/
1%
#15000000
0!
07
0/
1$
0:
0=
0?
1B
0@
18
1D
0A
0'
0(
0)
1*
0D
1A
#15250000
1"
1C
1/
0%
#15500000
1!
17
0/
0$
#15750000
0"
0C
1/
1%
#16000000
0!
07
0/
1$
1:
1<
08
1'
#16250000
1"
1C
1/
0%
#16500000
1!
17
0/
0$
#16750000
0"
0C
1/
1%
#17000000
0!
07
0/
1$
0:
1=
18
0'
1(
#17500000
1!
17
1/
0$
#17750000
1"
1C
0/
0%
1;
0<
16
1&
#18000000
0!
07
1/
1$
1:
0=
08
1'
0(
#18250000
0"
0C
0/
1%
#18500000
1!
17
1/
0$
#18750000
1"
1C
0/
0%
#19000000
0!
07
1/
1$
0:
1@
1>
1<
18
0'
0A
#19250000
0"
0C
0/
1%
#19500000
1!
17
1/
0$
#19750000
1"
1C
0/
0%
#20000000
0!
07
1/
1$
1:
1=
1?
0B
0@
08
1K
0F
1D
1A
1'
1(
1)
0*
0D
0A
#20250000
0"
0C
0/
1%
#20500000
1!
17
1/
0$
#20750000
1"
1C
0/
0%
#21000000
0!
07
1/
1$
0:
0<
18
0'
#21250000
0"
0C
0/
1%
#21500000
1!
17
1/
0$
#21750000
1"
1C
0/
0%
#22000000
0!
07
1/
1$
1:
0=
08
1'
0(
#22250000
0"
0C
0/
1%
#22500000
1!
17
1/
0$
#22750000
1"
1C
0/
0%
#23000000
0!
07
1/
1$
0:
0>
1<
18
0'
#23250000
0"
0C
0/
1%
#23500000
1!
17
1/
0$
#23750000
1"
1C
0/
0%
#24000000
0!
07
1/
1$
1:
1=
0?
08
1'
1(
0)
#24250000
0"
0C
0/
1%
#24500000
1!
17
1/
0$
#24750000
1"
1C
0/
0%
#25000000
0!
07
1/
1$
0:
0<
18
0'
#25250000
0"
0C
0/
1%
#25500000
1!
17
1/
0$
#25750000
1"
1C
0/
0%
#26000000
0!
07
1/
1$
1:
0=
08
1'
0(
#26250000
0"
0C
0/
1%
#26500000
1!
17
1/
0$
#27000000
0!
07
0/
1$
0:
1@
1>
1<
18
0'
1L
1I
1G
1D
1A
#27250000
1"
1C
1/
0%
0;
0K
1F
0D
0@
0>
0<
06
0&
0L
0I
0G
0A
#27500000
1!
17
0/
0$
#27750000
0"
0C
1/
1%
#28000000
0!
07
0/
1$
1:
1<
08
1'
#28250000
1"
1C
1/
0%
#28500000
1!
17
0/
0$
#28750000
0"
0C
1/
1%
#29000000
0!
07
0/
1$
0:
1=
18
0'
1(
#29250000
1"
1C
1/
0%
#29500000
1!
17
0/
0$
#29750000
0"
0C
1/
1%
#30000000
0!
07
0/
1$
1:
1>
0<
08
1'
#30250000
1"
1C
1/
0%
#30500000
1!
17
0/
0$
#30750000
0"
0C
1/
1%
#31000000
0!
07
0/
1$
0:
0=
1?
18
0'
0(
1)
#31250000
1"
1C
1/
0%
#31750000
0"
0C
0/
1%
#32250000
1"
1C
1/
0%
#32750000
0"
0C
0/
1%
#33250000
1"
1C
1/
0%
#33750000
0"
0C
0/
1%
#34000000
1!
17
1/
0$
#34250000
1"
1C
0/
0%
1;
1K
0F
0>
1<
16
1&
#34500000
0!
07
1/
1$
1:
1=
0?
08
1'
1(
0)
#34750000
0"
0C
0/
1%
#35000000
1!
17
1/
0$
#35250000
1"
1C
0/
0%
#35500000
0!
07
1/
1$
0:
0<
18
0'
#35750000
0"
0C
0/
1%
#36000000
1!
17
1/
0$
#36250000
1"
1C
0/
0%
#36500000
0!
07
1/
1$
1:
0=
08
1'
0(
#36750000
0"
0C
0/
1%
#37000000
1!
17
1/
0$
#37250000
1"
1C
0/
0%
#37500000
0!
07
1/
1$
0:
1@
1>
1<
18
0'
1L
1I
1G
1D
1A
#37750000
0"
0C
0/
1%
#38000000
1!
17
1/
0$
#38250000
1"
1C
0/
0%
#38500000
0!
07
1/
1$
1:
1=
1?
1B
1E
1H
1J
1M
0@
08
0K
1F
0A
0G
06
0I
0L
1'
1(
1)
1*
1+
1,
1-
1.
1L
1I
1G
1A
#38750000
0"
0C
0/
1%
#39000000
1!
17
1/
0$
#40000000
0!
07
0/
1$
0:
0<
18
0'
#40500000
1!
17
1/
0$
#41000000
0!
07
0/
1$
1:
0=
08
1'
0(
#41500000
1!
17
1/
0$
#42000000
0!
07
0/
1$
0:
0>
1<
18
0'
#42500000
1!
17
1/
0$
#43000000
0!
07
0/
1$
1:
1=
0?
08
1'
1(
0)
#43250000
1"
1C
1/
0%
0;
1K
0F
1>
0<
16
0&
#43500000
1!
17
0/
0$
#43750000
0"
0C
1/
1%
#44000000
0!
07
0/
1$
0:
0=
1?
18
0'
0(
1)
#44250000
1"
1C
1/
0%
#44500000
1!
17
0/
0$
#44750000
0"
0C
1/
1%
#45000000
0!
07
0/
1$
1:
1<
08
1'
#45250000
1"
1C
1/
0%
#45500000
1!
17
0/
0$
#45750000
0"
0C
1/
1%
#46000000
0!
07
0/
1$
0:
1=
18
0'
1(
#46250000
1"
1C
1/
0%
#46500000
1!
17
0/
0$
#46750000
0"
0C
1/
1%
#47000000
0!
07
0/
1$
1:
1@
0>
0<
08
1'
0L
0I
0G
0D
0A
#47250000
1"
1C
1/
0%
#47500000
1!
17
0/
0$
#47750000
0"
0C
1/
1%
#48000000
0!
07
0/
1$
0:
0=
0?
0B
0E
0H
0J
0M
0@
18
0K
1F
1A
1G
06
1I
1L
0'
0(
0)
0*
0+
0,
0-
0.
0L
0I
0G
0A
#48250000
1"
1C
1/
0%
#48500000
1!
17
0/
0$
#48750000
0"
0C
1/
1%
#49000000
0!
07
0/
1$
1:
1<
08
1'
#49250000
1"
1C
1/
0%
#49500000
1!
17
0/
0$
#49750000
0"
0C
1/
1%
#50000000
0!
07
0/
1$
0:
1=
18
0'
1(
#50250000
1"
1C
1/
0%
#50500000
1!
17
0/
0$
#52000000
0!
07
1/
1$
1:
1>
0<
08
1'
#52250000
0"
0C
0/
1%
#52500000
1!
17
1/
0$
#52750000
1"
1C
0/
0%
1;
1K
0F
0>
1<
16
1&
#53000000
0!
07
1/
1$
0:
0<
18
0'
#53250000
0"
0C
0/
1%
#53500000
1!
17
1/
0$
#53750000
1"
1C
0/
0%
#54000000
0!
07
1/
1$
1:
0=
08
1'
0(
#54250000
0"
0C
0/
1%
#54500000
1!
17
1/
0$
#54750000
1"
1C
0/
0%
#55000000
0!
07
1/
1$
0:
1@
1>
1<
18
0'
1L
1I
1G
1D
1A
#55250000
0"
0C
0/
1%
#55500000
1!
17
1/
0$
#55750000
1"
1C
0/
0%
#56000000
0!
07
1/
1$
1:
1=
1?
1B
1E
1H
1J
1M
0@
08
0K
1F
0A
0G
06
0I
0L
1'
1(
1)
1*
1+
1,
1-
1.
1L
1I
1G
1A
#56250000
0"
0C
0/
1%
#56500000
1!
17
1/
0$
#56750000
1"
1C
0/
0%
#57000000
0!
07
1/
1$
0:
0<
18
0'
#57500000
1!
17
0/
0$
#57750000
0"
0C
1/
1%
#58000000
0!
07
0/
1$
1:
0=
08
1'
0(
#58250000
1"
1C
1/
0%
0;
1K
0F
1<
16
0&
#58500000
1!
17
0/
0$
#58750000
0"
0C
1/
1%
#59000000
0!
07
0/
1$
0:
1=
18
0'
1(
#59250000
1"
1C
1/
0%
#59500000
1!
17
0/
0$
#59750000
0"
0C
1/
1%
#60000000
0!
07
0/
1$
1:
1@
0>
0<
08
1'
0L
0I
0G
0D
0A
#60250000
1"
1C
1/
0%
#60500000
1!
17
0/
0$
#60750000
0"
0C
1/
1%
#61000000
0!
07
0/
1$
0:
0=
0?
0B
0E
0H
0J
0M
0@
18
0K
1F
1A
1G
06
1I
1L
0'
0(
0)
0*
0+
0,
0-
0.
0L
0I
0G
0A
#61250000
1"
1C
1/
0%
#61500000
1!
17
0/
0$
#61750000
0"
0C
1/
1%
#62000000
0!
07
0/
1$
1:
1<
08
1'
#62250000
1"
1C
1/
0%
#62500000
1!
17
0/
0$
#62750000
0"
0C
1/
1%
#63000000
0!
07
0/
1$
0:
1=
18
0'
1(
#63250000
1"
1C
1/
0%
#63500000
1!
17
0/
0$
#63750000
0"
0C
1/
1%
#64000000
0!
07
0/
1$
1:
1>
0<
08
1'
#64250000
1"
1C
1/
0%
#64500000
1!
17
0/
0$
#64750000
0"
0C
1/
1%
#65000000
0!
07
0/
1$
0:
0=
1?
18
0'
0(
1)
#65250000
1"
1C
1/
0%
#65500000
1!
17
0/
0$
#65750000
0"
0C
1/
1%
#66000000
0!
07
0/
1$
1:
1<
08
1'
#66250000
1"
1C
1/
0%
#66500000
1!
17
0/
0$
#66750000
0"
0C
1/
1%
#67000000
0!
07
0/
1$
0:
1=
18
0'
1(
#67250000
1"
1C
1/
0%
#67500000
1!
17
0/
0$
#67750000
0"
0C
1/
1%
#68000000
0!
07
0/
1$
1:
1@
0>
0<
08
1'
1A
#68250000
1"
1C
1/
0%
#68500000
1!
17
0/
0$
#68750000
0"
0C
1/
1%
#69000000
0!
07
0/
1$
0:
0=
0?
1B
0@
18
1D
0A
0'
0(
0)
1*
0D
1A
#69250000
1"
1C
1/
0%
#69500000
1!
17
0/
0$
#69750000
0"
0C
1/
1%
#70000000
0!
07
0/
1$
1:
1<
08
1'
#70250000
1"
1C
1/
0%
#70500000
1!
17
0/
0$
#70750000
0"
0C
1/
1%
#71000000
0!
07
0/
1$
0:
1=
18
0'
1(
#71250000
1"
1C
1/
0%
#71500000
1!
17
0/
0$
#71750000
0"
0C
1/
1%
#72000000
0!
07
0/
1$
1:
1>
0<
08
1'
#72250000
1"
1C
1/
0%
#72500000
1!
17
0/
0$
#72750000
0"
0C
1/
1%
#73000000
0!
07
0/
1$
0:
0=
1?
18
0'
0(
1)
#73250000
1"
1C
1/
0%
#73500000
1!
17
0/
0$
#73750000
0"
0C
1/
1%
#74000000
0!
07
0/
1$
1:
1<
08
1'
#74250000
1"
1C
1/
0%
#74500000
1!
17
0/
0$
#74750000
0"
0C
1/
1%
#75000000
0!
07
0/
1$
0:
1=
18
0'
1(
#75250000
1"
1C
1/
0%
#75500000
1!
17
0/
0$
#75750000
0"
0C
1/
1%
#76000000
0!
07
0/
1$
1:
1@
0>
0<
08
1'
1D
0A
#76250000
1"
1C
1/
0%
#76500000
1!
17
0/
0$
#76750000
0"
0C
1/
1%
#77000000
0!
07
0/
1$
0:
0=
0?
0B
1E
0@
18
1A
0'
0(
0)
0*
1+
0A
#77250000
1"
1C
1/
0%
#77500000
1!
17
0/
0$
#77750000
0"
0C
1/
1%
#78000000
0!
07
0/
1$
1:
1<
08
1'
#78250000
1"
1C
1/
0%
#78500000
1!
17
0/
0$
#78750000
0"
0C
1/
1%
#79000000
0!
07
0/
1$
0:
1=
18
0'
1(
#79250000
1"
1C
1/
0%
#79500000
1!
17
0/
0$
#79750000
0"
0C
1/
1%
#80000000
0!
07
0/
1$
1:
1>
0<
08
1'
#80250000
1"
1C
1/
0%
#80500000
1!
17
0/
0$
#80750000
0"
0C
1/
1%
#81000000
0!
07
0/
1$
0:
0=
1?
18
0'
0(
1)
#81250000
1"
1C
1/
0%
#81500000
1!
17
0/
0$
#81750000
0"
0C
1/
1%
#82000000
0!
07
0/
1$
1:
1<
08
1'
#82250000
1"
1C
1/
0%
#82500000
1!
17
0/
0$
#82750000
0"
0C
1/
1%
#83000000
0!
07
0/
1$
0:
1=
18
0'
1(
#83250000
1"
1C
1/
0%
#83500000
1!
17
0/
0$
#83750000
0"
0C
1/
1%
#84000000
0!
07
0/
1$
1:
1@
0>
0<
08
1'
1A
#84250000
1"
1C
1/
0%
#84500000
1!
17
0/
0$
#84750000
0"
0C
1/
1%
#85000000
0!
07
0/
1$
0:
0=
0?
1B
0@
18
0F
0D
0A
0'
0(
0)
1*
1D
1A
#85250000
1"
1C
1/
0%
#85500000
1!
17
0/
0$
#85750000
0"
0C
1/
1%
#86000000
0!
07
0/
1$
1:
1<
08
1'
#86250000
1"
1C
1/
0%
#86500000
1!
17
0/
0$
#86750000
0"
0C
1/
1%
#87000000
0!
07
0/
1$
0:
1=
18
0'
1(
#87250000
1"
1C
1/
0%
#87500000
1!
17
0/
0$
#87750000
0"
0C
1/
1%
#88000000
0!
07
0/
1$
1:
1>
0<
08
1'
#88250000
1"
1C
1/
0%
#88500000
1!
17
0/
0$
#88750000
0"
0C
1/
1%
#89000000
0!
07
0/
1$
0:
0=
1?
18
0'
0(
1)
#89250000
1"
1C
1/
0%
#89500000
1!
17
0/
0$
#89750000
0"
0C
1/
1%
#90000000
0!
07
0/
1$
1:
1<
08
1'
#90250000
1"
1C
1/
0%
#90500000
1!
17
0/
0$
#90750000
0"
0C
1/
1%
#91000000
0!
07
0/
1$
0:
1=
18
0'
1(
#91250000
1"
1C
1/
0%
#91500000
1!
17
0/
0$
#91750000
0"
0C
1/
1%
#92000000
0!
07
0/
1$
1:
1@
0>
0<
08
1'
1G
0D
0A
#92250000
1"
1C
1/
0%
#92500000
1!
17
0/
0$
#92750000
0"
0C
1/
1%
#93000000
0!
07
0/
1$
0:
0=
0?
0B
0E
1H
0@
18
1F
1A
0G
16
0'
0(
0)
0*
0+
1,
1G
0A
#93250000
1"
1C
1/
0%
#93500000
1!
17
0/
0$
#93750000
0"
0C
1/
1%
#94000000
0!
07
0/
1$
1:
1<
08
1'
#94250000
1"
1C
1/
0%
#94500000
1!
17
0/
0$
#94750000
0"
0C
1/
1%
#95000000
0!
07
0/
1$
0:
1=
18
0'
1(
#95250000
1"
1C
1/
0%
#95500000
1!
17
0/
0$
#95750000
0"
0C
1/
1%
#96000000
0!
07
0/
1$
1:
1>
0<
08
1'
#96250000
1"
1C
1/
0%
#96500000
1!
17
0/
0$
#96750000
0"
0C
1/
1%
#97000000
0!
07
0/
1$
0:
0=
1?
18
0'
0(
1)
#97250000
1"
1C
1/
0%
#97500000
1!
17
0/
0$
#97750000
0"
0C
1/
1%
#98000000
0!
07
0/
1$
1:
1<
08
1'
#98250000
1"
1C
1/
0%
#98500000
1!
17
0/
0$
#98750000
0"
0C
1/
1%
#99000000
0!
07
0/
1$
0:
1=
18
0'
1(
#99250000
1"
1C
1/
0%
#99500000
1!
17
0/
0$
#99750000
0"
0C
1/
1%
